RoundRobin/round_robin.vcd
$date
	Sat Nov 24 23:13:07 2018
$end
$version
	Icarus Verilog
$end
$timescale
	1s
$end
$scope module testbench $end
$var wire 1 ! validMux_estru $end
$var wire 1 " validMux_condu $end
$var wire 1 # reset_L $end
$var wire 1 $ request1 $end
$var wire 1 % request0 $end
$var wire 1 & portMux_estru $end
$var wire 1 ' portMux_condu $end
$var wire 1 ( pop1_estru $end
$var wire 1 ) pop1_condu $end
$var wire 1 * pop0_estru $end
$var wire 1 + pop0_condu $end
$var wire 1 , clk $end
$scope module prob $end
$var wire 1 ! validMux_estru $end
$var wire 1 " validMux_condu $end
$var wire 1 & portMux_estru $end
$var wire 1 ' portMux_condu $end
$var wire 1 ( pop1_estru $end
$var wire 1 ) pop1_condu $end
$var wire 1 * pop0_estru $end
$var wire 1 + pop0_condu $end
$var reg 1 , clk $end
$var reg 1 % request0 $end
$var reg 1 $ request1 $end
$var reg 1 # reset_L $end
$upscope $end
$scope module roundRobinCondu $end
$var wire 1 , clk $end
$var wire 1 % request0 $end
$var wire 1 $ request1 $end
$var wire 1 # reset_L $end
$var reg 1 + pop_0 $end
$var reg 1 ) pop_1 $end
$var reg 1 ' portMux $end
$var reg 1 - valid $end
$var reg 1 " validMux $end
$upscope $end
$scope module roundRobinEstru $end
$var wire 1 , clk $end
$var wire 1 % request0 $end
$var wire 1 $ request1 $end
$var wire 1 # reset_L $end
$var wire 1 ! validMux $end
$var wire 1 & portMux $end
$var wire 1 ( pop_1 $end
$var wire 1 * pop_0 $end
$var wire 1 . _13_ $end
$var wire 1 / _12_ $end
$var wire 1 0 _11_ $end
$var wire 1 1 _10_ $end
$var wire 1 2 _09_ $end
$var wire 1 3 _08_ $end
$var wire 1 4 _07_ $end
$var wire 1 5 _06_ $end
$var wire 1 6 _05_ $end
$var wire 1 7 _04_ $end
$var wire 1 8 _03_ $end
$var wire 1 9 _02_ $end
$var wire 1 : _01_ $end
$var wire 1 ; _00_ $end
$scope module _14_ $end
$var wire 1 % A $end
$var wire 1 . Y $end
$upscope $end
$scope module _15_ $end
$var wire 1 . B $end
$var wire 1 7 Y $end
$var wire 1 & A $end
$upscope $end
$scope module _16_ $end
$var wire 1 $ A $end
$var wire 1 # B $end
$var wire 1 6 Y $end
$upscope $end
$scope module _17_ $end
$var wire 1 7 A $end
$var wire 1 6 B $end
$var wire 1 : Y $end
$upscope $end
$scope module _18_ $end
$var wire 1 $ A $end
$var wire 1 5 Y $end
$var wire 1 & B $end
$upscope $end
$scope module _19_ $end
$var wire 1 5 A $end
$var wire 1 4 Y $end
$upscope $end
$scope module _20_ $end
$var wire 1 # A $end
$var wire 1 % B $end
$var wire 1 3 Y $end
$upscope $end
$scope module _21_ $end
$var wire 1 $ A $end
$var wire 1 % B $end
$var wire 1 2 Y $end
$upscope $end
$scope module _22_ $end
$var wire 1 4 A $end
$var wire 1 3 B $end
$var wire 1 ; Y $end
$upscope $end
$scope module _23_ $end
$var wire 1 # A $end
$var wire 1 2 B $end
$var wire 1 1 Y $end
$upscope $end
$scope module _24_ $end
$var wire 1 1 A $end
$var wire 1 8 Y $end
$upscope $end
$scope module _25_ $end
$var wire 1 % B $end
$var wire 1 0 Y $end
$var wire 1 & A $end
$upscope $end
$scope module _26_ $end
$var wire 1 0 A $end
$var wire 1 / Y $end
$upscope $end
$scope module _27_ $end
$var wire 1 6 A $end
$var wire 1 / B $end
$var wire 1 9 Y $end
$upscope $end
$scope module _28_ $end
$var wire 1 , C $end
$var wire 1 9 D $end
$var reg 1 & Q $end
$upscope $end
$scope module _29_ $end
$var wire 1 , C $end
$var wire 1 8 D $end
$var reg 1 ! Q $end
$upscope $end
$scope module _30_ $end
$var wire 1 , C $end
$var wire 1 ; D $end
$var reg 1 * Q $end
$upscope $end
$scope module _31_ $end
$var wire 1 , C $end
$var wire 1 : D $end
$var reg 1 ( Q $end
$upscope $end
$upscope $end
$upscope $end
$enddefinitions $end
#0
$dumpvars
0;
0:
09
08
07
16
15
04
13
12
11
10
0/
1.
0-
0,
x+
x*
x)
x(
x'
x&
0%
0$
0#
x"
x!
$end
#1
18
01
0)
0+
0"
0'
0&
0!
0*
0(
1#
1,
#2
0,
#3
1!
1"
1,
#4
0,
#5
1,
#6
0,
#7
1,
#8
0,
#9
1,
#10
0,
#11
1,
#12
0,
#13
1,
#14
0,
#15
1,
#16
0,
#17
1,
#18
0,
#19
1,
#20
0,
#21
08
1:
19
11
06
02
1-
1$
1,
#22
0,
#23
14
05
1(
0!
1&
1)
1'
0+
0"
1,
#24
0,
#25
0+
1)
1'
1,
#26
0,
#27
0+
1)
1'
1,
#28
0,
#29
0+
1)
1'
1,
#30
0,
#31
0+
1)
1'
1,
#32
0,
#33
0+
1)
1'
1,
#34
0,
#35
0+
1)
1'
1,
#36
0,
#37
0+
1)
1'
1,
#38
0,
#39
0+
1)
1'
1,
#40
0,
#41
09
1/
03
00
0.
0+
1)
1'
1%
1,
#42
0,
#43
19
1;
0:
0/
04
10
15
17
0&
0'
1,
#44
0,
#45
09
0;
1:
1/
14
00
05
07
1+
0)
1'
1&
1*
0(
1,
#46
0,
#47
19
1;
0:
0/
04
10
15
17
1(
0*
0&
0+
1)
0'
1,
#48
0,
#49
09
0;
1:
1/
14
00
05
07
1+
0)
1'
1&
1*
0(
1,
#50
0,
#51
19
1;
0:
0/
04
10
15
17
1(
0*
0&
0+
1)
0'
1,
#52
0,
#53
09
0;
1:
1/
14
00
05
07
1+
0)
1'
1&
1*
0(
1,
#54
0,
#55
19
1;
0:
0/
04
10
15
17
1(
0*
0&
0+
1)
0'
1,
#56
0,
#57
09
0;
1:
1/
14
00
05
07
1+
0)
1'
1&
1*
0(
1,
#58
0,
#59
19
1;
0:
0/
04
10
15
17
1(
0*
0&
0+
1)
0'
1,
#60
0,
#61
09
1/
00
07
16
1+
0)
1'
1&
1*
0(
0$
1,
#62
0,
#63
0/
10
17
0&
0'
1,
#64
0,
#65
1,
#66
0,
#67
1,
#68
0,
#69
1,
#70
0,
#71
1,
#72
0,
#73
1,
#74
0,
#75
1,
#76
0,
#77
1,
#78
0,
#79
1,
#80
0,
#81
0;
13
0#
1,
#82
0,
#83
0*
0+
1,
