FSM_Control/fsmControl.vcd
$date
	Sat Nov 24 21:05:14 2018
$end
$version
	Icarus Verilog
$end
$timescale
	1s
$end
$scope module testbench $end
$var wire 8 ! umbrales_VCFC_estru [7:0] $end
$var wire 8 " umbrales_VCFC_condu [7:0] $end
$var wire 8 # umbral_VCFC [7:0] $end
$var wire 1 $ reset_L $end
$var wire 1 % init $end
$var wire 1 & idle_estru $end
$var wire 1 ' idle_condu $end
$var wire 1 ( error_estru $end
$var wire 1 ) error_condu $end
$var wire 1 * clk $end
$var wire 1 + active_estru $end
$var wire 1 , active_condu $end
$var wire 1 - FIFO_error $end
$var wire 1 . FIFO_empty $end
$scope module fsmCondu $end
$var wire 8 / umbral_VCFC [7:0] $end
$var wire 1 $ reset_L $end
$var wire 1 % init $end
$var wire 1 * clk $end
$var wire 1 - FIFO_error $end
$var wire 1 . FIFO_empty $end
$var reg 1 , active $end
$var reg 1 ) error $end
$var reg 1 ' idle $end
$var reg 5 0 nxt_state [4:0] $end
$var reg 5 1 state [4:0] $end
$var reg 8 2 umbrales_VCFC [7:0] $end
$upscope $end
$scope module fsmEstru $end
$var wire 8 3 umbrales_VCFC [7:0] $end
$var wire 8 4 umbral_VCFC [7:0] $end
$var wire 5 5 state [4:0] $end
$var wire 1 $ reset_L $end
$var wire 1 % init $end
$var wire 1 & idle $end
$var wire 1 ( error $end
$var wire 1 * clk $end
$var wire 1 + active $end
$var wire 1 6 _30_ $end
$var wire 1 7 _29_ $end
$var wire 1 8 _28_ $end
$var wire 1 9 _27_ $end
$var wire 1 : _26_ $end
$var wire 1 ; _25_ $end
$var wire 1 < _24_ $end
$var wire 1 = _23_ $end
$var wire 1 > _22_ $end
$var wire 1 ? _21_ $end
$var wire 1 @ _20_ $end
$var wire 1 A _19_ $end
$var wire 1 B _18_ $end
$var wire 1 C _17_ $end
$var wire 1 D _16_ $end
$var wire 1 E _15_ $end
$var wire 1 F _14_ $end
$var wire 1 G _13_ $end
$var wire 1 H _12_ $end
$var wire 1 I _11_ $end
$var wire 1 J _10_ $end
$var wire 1 K _09_ $end
$var wire 1 L _08_ $end
$var wire 1 M _07_ $end
$var wire 1 N _06_ $end
$var wire 1 O _05_ $end
$var wire 1 P _04_ $end
$var wire 1 Q _03_ $end
$var wire 1 R _02_ $end
$var wire 1 S _01_ $end
$var wire 1 T _00_ $end
$var wire 1 - FIFO_error $end
$var wire 1 . FIFO_empty $end
$scope module _31_ $end
$var wire 1 U A $end
$var wire 1 Q Y $end
$upscope $end
$scope module _32_ $end
$var wire 1 P Y $end
$var wire 1 - A $end
$upscope $end
$scope module _33_ $end
$var wire 1 O Y $end
$var wire 1 % A $end
$upscope $end
$scope module _34_ $end
$var wire 1 V A $end
$var wire 1 N Y $end
$upscope $end
$scope module _35_ $end
$var wire 1 W A $end
$var wire 1 M Y $end
$upscope $end
$scope module _36_ $end
$var wire 1 X A $end
$var wire 1 L Y $end
$upscope $end
$scope module _37_ $end
$var wire 1 Y A $end
$var wire 1 K Y $end
$upscope $end
$scope module _38_ $end
$var wire 1 Z A $end
$var wire 1 J Y $end
$upscope $end
$scope module _39_ $end
$var wire 1 [ A $end
$var wire 1 I Y $end
$upscope $end
$scope module _40_ $end
$var wire 1 \ A $end
$var wire 1 H Y $end
$upscope $end
$scope module _41_ $end
$var wire 1 ] A $end
$var wire 1 G Y $end
$upscope $end
$scope module _42_ $end
$var wire 1 F Y $end
$var wire 1 $ A $end
$upscope $end
$scope module _43_ $end
$var wire 1 O A $end
$var wire 1 ^ B $end
$var wire 1 E Y $end
$upscope $end
$scope module _44_ $end
$var wire 1 _ A $end
$var wire 1 F B $end
$var wire 1 D Y $end
$upscope $end
$scope module _45_ $end
$var wire 1 E A $end
$var wire 1 D B $end
$var wire 1 T Y $end
$upscope $end
$scope module _46_ $end
$var wire 1 F B $end
$var wire 1 C Y $end
$var wire 1 - A $end
$upscope $end
$scope module _47_ $end
$var wire 1 P A $end
$var wire 1 B Y $end
$var wire 1 $ B $end
$upscope $end
$scope module _48_ $end
$var wire 1 ` B $end
$var wire 1 A Y $end
$var wire 1 . A $end
$upscope $end
$scope module _49_ $end
$var wire 1 A A $end
$var wire 1 @ Y $end
$upscope $end
$scope module _50_ $end
$var wire 1 a A $end
$var wire 1 @ B $end
$var wire 1 ? Y $end
$upscope $end
$scope module _51_ $end
$var wire 1 B A $end
$var wire 1 ? B $end
$var wire 1 S Y $end
$upscope $end
$scope module _52_ $end
$var wire 1 b A $end
$var wire 1 c B $end
$var wire 1 > Y $end
$upscope $end
$scope module _53_ $end
$var wire 1 > A $end
$var wire 1 = Y $end
$upscope $end
$scope module _54_ $end
$var wire 1 Q A $end
$var wire 1 < Y $end
$var wire 1 . B $end
$upscope $end
$scope module _55_ $end
$var wire 1 C A $end
$var wire 1 < B $end
$var wire 1 : Y $end
$upscope $end
$scope module _56_ $end
$var wire 1 > A $end
$var wire 1 : B $end
$var wire 1 R Y $end
$upscope $end
$scope module _57_ $end
$var wire 1 A B $end
$var wire 1 & Y $end
$var wire 1 - A $end
$upscope $end
$scope module _58_ $end
$var wire 1 Q A $end
$var wire 1 + Y $end
$var wire 1 - B $end
$upscope $end
$scope module _59_ $end
$var wire 1 d A $end
$var wire 1 = B $end
$var wire 1 8 Y $end
$upscope $end
$scope module _60_ $end
$var wire 1 N A $end
$var wire 1 8 B $end
$var wire 1 e Y $end
$upscope $end
$scope module _61_ $end
$var wire 1 M A $end
$var wire 1 8 B $end
$var wire 1 f Y $end
$upscope $end
$scope module _62_ $end
$var wire 1 L A $end
$var wire 1 8 B $end
$var wire 1 g Y $end
$upscope $end
$scope module _63_ $end
$var wire 1 K A $end
$var wire 1 8 B $end
$var wire 1 h Y $end
$upscope $end
$scope module _64_ $end
$var wire 1 J A $end
$var wire 1 8 B $end
$var wire 1 i Y $end
$upscope $end
$scope module _65_ $end
$var wire 1 I A $end
$var wire 1 8 B $end
$var wire 1 j Y $end
$upscope $end
$scope module _66_ $end
$var wire 1 H A $end
$var wire 1 8 B $end
$var wire 1 k Y $end
$upscope $end
$scope module _67_ $end
$var wire 1 G A $end
$var wire 1 8 B $end
$var wire 1 l Y $end
$upscope $end
$scope module _68_ $end
$var wire 1 7 Y $end
$var wire 1 $ B $end
$var wire 1 - A $end
$upscope $end
$scope module _69_ $end
$var wire 1 8 A $end
$var wire 1 7 B $end
$var wire 1 ; Y $end
$upscope $end
$scope module _70_ $end
$var wire 1 m B $end
$var wire 1 6 Y $end
$var wire 1 % A $end
$upscope $end
$scope module _71_ $end
$var wire 1 F A $end
$var wire 1 6 B $end
$var wire 1 9 Y $end
$upscope $end
$scope module _72_ $end
$var wire 1 T D $end
$var wire 1 * C $end
$var reg 1 n Q $end
$upscope $end
$scope module _73_ $end
$var wire 1 ; D $end
$var wire 1 * C $end
$var reg 1 o Q $end
$upscope $end
$scope module _74_ $end
$var wire 1 R D $end
$var wire 1 * C $end
$var reg 1 p Q $end
$upscope $end
$scope module _75_ $end
$var wire 1 S D $end
$var wire 1 * C $end
$var reg 1 q Q $end
$upscope $end
$scope module _76_ $end
$var wire 1 9 D $end
$var wire 1 * C $end
$var reg 1 r Q $end
$upscope $end
$upscope $end
$scope module prob $end
$var wire 1 , active_condu $end
$var wire 1 + active_estru $end
$var wire 1 ) error_condu $end
$var wire 1 ( error_estru $end
$var wire 1 ' idle_condu $end
$var wire 1 & idle_estru $end
$var wire 8 s umbrales_VCFC_condu [7:0] $end
$var wire 8 t umbrales_VCFC_estru [7:0] $end
$var reg 1 . FIFO_empty $end
$var reg 1 - FIFO_error $end
$var reg 1 * clk $end
$var reg 1 % init $end
$var reg 1 $ reset_L $end
$var reg 8 u umbral_VCFC [7:0] $end
$upscope $end
$upscope $end
$enddefinitions $end
#0
$dumpvars
b0 u
b0 t
b0 s
xr
xq
xp
xo
xn
xm
0l
0k
0j
0i
0h
0g
0f
0e
xd
xc
xb
xa
x`
x_
x^
0]
0\
0[
0Z
0Y
0X
0W
0V
xU
1T
0S
0R
xQ
1P
1O
1N
1M
1L
1K
1J
1I
1H
1G
1F
xE
0D
0C
1B
1A
0@
x?
x>
x=
1<
0;
1:
09
x8
17
16
bx 5
b0 4
b0 3
b0 2
bx 1
b1 0
b0 /
0.
0-
0,
x+
0*
0)
x(
0'
0&
0%
0$
b0 #
b0 "
b0 !
$end
#1
18
0:
0+
0=
0S
0E
1>
1?
1D
1C
1Q
0B
1m
1^
0(
0_
0b
0U
0c
0`
0d
0a
0F
b1 1
1n
0o
0p
0q
b1 5
0r
1$
1*
#2
0*
#3
0T
19
1E
06
0O
b10 0
1%
1*
#4
0*
#5
1;
09
1:
08
0?
1B
16
07
0C
0m
0^
1d
1a
1O
0P
b10000 0
b10 1
0n
b10000 5
1r
0%
1-
1*
#6
0*
#7
1T
0;
18
1?
0D
17
1P
1F
0d
0a
1(
1_
1)
0-
0$
0r
b10 5
1o
b10000 1
1*
#8
0*
#9
0E
b1 0
0)
1m
1^
0(
0_
b1 1
1n
b1 5
0o
1*
#10
0*
#11
0T
19
1E
1D
1C
0<
0G
0I
0K
0L
0M
0N
06
0B
1]
1[
1Y
1X
1W
1V
0O
0F
b10 0
1.
b10101111 #
b10101111 /
b10101111 4
b10101111 u
1%
1$
1*
#12
0*
#13
1e
1f
1g
1h
1j
b10101111 !
b10101111 3
b10101111 t
1l
1S
09
08
0?
16
1O
b100 0
b10101111 "
b10101111 2
b10101111 s
0m
0^
1d
1a
0%
b10 1
0n
b10000 5
1r
1*
#14
0*
#15
1e
1f
1g
1h
1j
b10101111 !
b10101111 3
b10101111 t
1l
1S
1&
1=
1@
08
0?
0>
0A
0d
0a
1c
1`
1'
b10101111 "
b10101111 2
b10101111 s
0r
b1000 5
1q
b100 1
1*
#16
0*
#17
0S
1R
1?
0:
0&
0@
1<
1A
b1000 0
b10101111 "
b10101111 2
b10101111 s
0'
0.
1*
#18
0*
#19
1+
0Q
0c
0`
1b
1U
1,
b10101111 "
b10101111 2
b10101111 s
0q
b100 5
1p
b1000 1
1*
